13 Aggregate data with tidyverse | Learn R for biologist
…
Super cool! In this case we used two variables to define rows and two variables to fill values.

Reshape a dataframe with pivot_longer

Although the previous code returns a cool table, it is suitable only to present data, not for any further analysis. As you may remember from the exercise 12.1, this is not how raw data should be organized.

If you find yourself in a situation in which raw data are like that, use pivot_longer() to fix it.

df_wider %>%
  pivot_longer(cols = mean_Control:sd_AD, names_to = c("statistics", "Diagnosis"), names_sep = "_")

# A tibble: 24 × 5
# Groups:   sex [2]
   sex   dataset statistics Diagnosis value
   <fct> <fct>   <chr>      <chr>     <dbl>
 1 F     MAYO    mean       Control    7   
 2 F     MAYO    sd         Control    7.69
 3 F     MAYO    mean       AD         6.34
 4 F     MAYO    sd         AD         5.80
 5 F     MSBB    mean       Control    8.60
 6 F     MSBB    sd         Control    5.79
 7 F     MSBB    mean       AD         5.76
 8 F     MSBB    sd         AD         3.91
 9 F     ROSMAP  mean       Control    7.25
10 F     ROSMAP  sd         Control    5.18
# ℹ 14 more rows
…
